{
  "restart_log": true,
  "engine": {
    "type": "sim",
    "start_time": "PT0S",
    "end_time": "PT1M"
  },
  "events": [
    {
      "comment": "speedometer",
      "repeats": 3,
      "action": {
        "create_device": {
          "functions": {
            "basic": {
              "label_root": "speedometer "
            },
            "speedometer": {
              "battery_life": "PT30S",
              "autoreplace": true,
              "autoreplace_delay": "PT1S",
              "max_speed": 90,
              "min_speed": 20
            },
           "heartbeat" : {
             "interval" : "PT10S"
           }
          }
        }
      }
    }
  ]
}

 (from speedometer)
